\contentsline {chapter}{\numberline {1}Data Structure Index}{1}{chapter.1}
\contentsline {section}{\numberline {1.1}Data Structures}{1}{section.1.1}
\contentsline {chapter}{\numberline {2}Data Structure Documentation}{3}{chapter.2}
\contentsline {section}{\numberline {2.1}\discretionary {-}{}{}\_\discretionary {-}{}{}ip\discretionary {-}{}{}\_\discretionary {-}{}{}digital Struct Reference}{3}{section.2.1}
\contentsline {subsection}{\numberline {2.1.1}Detailed Description}{3}{subsection.2.1.1}
\contentsline {section}{\numberline {2.2}A\discretionary {-}{}{}P\discretionary {-}{}{}P\discretionary {-}{}{}L\discretionary {-}{}{}I\discretionary {-}{}{}C\discretionary {-}{}{}A\discretionary {-}{}{}T\discretionary {-}{}{}I\discretionary {-}{}{}O\discretionary {-}{}{}N\discretionary {-}{}{}\_\discretionary {-}{}{}\discretionary {-}{}{}M\discretionary {-}{}{}E\discretionary {-}{}{}S\discretionary {-}{}{}S\discretionary {-}{}{}A\discretionary {-}{}{}G\discretionary {-}{}{}E Struct Reference}{3}{section.2.2}
\contentsline {chapter}{Index}{4}{section*.4}
