\relax 
\providecommand\hyper@newdestlabel[2]{}
\providecommand\HyperFirstAtBeginDocument{\AtBeginDocument}
\HyperFirstAtBeginDocument{\ifx\hyper@anchor\@undefined
\global\let\oldcontentsline\contentsline
\gdef\contentsline#1#2#3#4{\oldcontentsline{#1}{#2}{#3}}
\global\let\oldnewlabel\newlabel
\gdef\newlabel#1#2{\newlabelxx{#1}#2}
\gdef\newlabelxx#1#2#3#4#5#6{\oldnewlabel{#1}{{#2}{#3}}}
\AtEndDocument{\ifx\hyper@anchor\@undefined
\let\contentsline\oldcontentsline
\let\newlabel\oldnewlabel
\fi}
\fi}
\global\let\hyper@last\relax 
\gdef\HyperFirstAtBeginDocument#1{#1}
\providecommand\HyField@AuxAddToFields[1]{}
\providecommand\HyField@AuxAddToCoFields[2]{}
\@writefile{toc}{\contentsline {chapter}{\numberline {1}Data Structure Index}{1}{chapter.1}}
\@writefile{lof}{\addvspace {10\p@ }}
\@writefile{lot}{\addvspace {10\p@ }}
\@writefile{toc}{\contentsline {section}{\numberline {1.1}Data Structures}{1}{section.1.1}}
\gdef \PWST@i{1}
\@writefile{toc}{\contentsline {chapter}{\numberline {2}Data Structure Documentation}{3}{chapter.2}}
\@writefile{lof}{\addvspace {10\p@ }}
\@writefile{lot}{\addvspace {10\p@ }}
\@writefile{toc}{\contentsline {section}{\numberline {2.1}\discretionary {-}{}{}\_\discretionary {-}{}{}ip\discretionary {-}{}{}\_\discretionary {-}{}{}digital Struct Reference}{3}{section.2.1}}
\newlabel{struct__ip__digital}{{2.1}{3}{\-\_\-ip\-\_\-digital Struct Reference}{section.2.1}{}}
\newlabel{struct__ip__digital_a740b59fa4e51e72ecf6ac3ee768c8c16}{{2.1}{3}{Data Fields}{section*.2}{}}
\newlabel{struct__ip__digital_abb379e46b21fe1085385b9659b12f3a4}{{2.1}{3}{Data Fields}{section*.2}{}}
\newlabel{struct__ip__digital_ad2da4e1192a4e459dc50abb0790454ae}{{2.1}{3}{Data Fields}{section*.2}{}}
\newlabel{struct__ip__digital_a6b50836eb1082a79e08e63028a6be385}{{2.1}{3}{Data Fields}{section*.2}{}}
\@writefile{toc}{\contentsline {subsection}{\numberline {2.1.1}Detailed Description}{3}{subsection.2.1.1}}
\@writefile{toc}{\contentsline {section}{\numberline {2.2}A\discretionary {-}{}{}P\discretionary {-}{}{}P\discretionary {-}{}{}L\discretionary {-}{}{}I\discretionary {-}{}{}C\discretionary {-}{}{}A\discretionary {-}{}{}T\discretionary {-}{}{}I\discretionary {-}{}{}O\discretionary {-}{}{}N\discretionary {-}{}{}\_\discretionary {-}{}{}\discretionary {-}{}{}M\discretionary {-}{}{}E\discretionary {-}{}{}S\discretionary {-}{}{}S\discretionary {-}{}{}A\discretionary {-}{}{}G\discretionary {-}{}{}E Struct Reference}{3}{section.2.2}}
\newlabel{struct_a_p_p_l_i_c_a_t_i_o_n___m_e_s_s_a_g_e}{{2.2}{3}{A\-P\-P\-L\-I\-C\-A\-T\-I\-O\-N\-\_\-\-M\-E\-S\-S\-A\-G\-E Struct Reference}{section.2.2}{}}
\newlabel{struct_a_p_p_l_i_c_a_t_i_o_n___m_e_s_s_a_g_e_af6bd0ba14c4b5d5e5a22b5adb9256a53}{{2.2}{3}{Data Fields}{section*.3}{}}
\newlabel{struct_a_p_p_l_i_c_a_t_i_o_n___m_e_s_s_a_g_e_a95e7421b9fa02e6b05185b7a01895da3}{{2.2}{3}{Data Fields}{section*.3}{}}
\newlabel{struct_a_p_p_l_i_c_a_t_i_o_n___m_e_s_s_a_g_e_aad20077939fb7b9e145416f55028ea37}{{2.2}{3}{Data Fields}{section*.3}{}}
\@writefile{toc}{\contentsline {chapter}{Index}{4}{section*.4}}
