\relax 
\providecommand\hyper@newdestlabel[2]{}
\catcode `"\active 
\catcode `<\active 
\catcode `>\active 
\@nameuse{es@quoting}
\providecommand\HyperFirstAtBeginDocument{\AtBeginDocument}
\HyperFirstAtBeginDocument{\ifx\hyper@anchor\@undefined
\global\let\oldcontentsline\contentsline
\gdef\contentsline#1#2#3#4{\oldcontentsline{#1}{#2}{#3}}
\global\let\oldnewlabel\newlabel
\gdef\newlabel#1#2{\newlabelxx{#1}#2}
\gdef\newlabelxx#1#2#3#4#5#6{\oldnewlabel{#1}{{#2}{#3}}}
\AtEndDocument{\ifx\hyper@anchor\@undefined
\let\contentsline\oldcontentsline
\let\newlabel\oldnewlabel
\fi}
\fi}
\global\let\hyper@last\relax 
\gdef\HyperFirstAtBeginDocument#1{#1}
\providecommand\HyField@AuxAddToFields[1]{}
\providecommand\HyField@AuxAddToCoFields[2]{}
\select@language{spanish}
\@writefile{toc}{\select@language{spanish}}
\@writefile{lof}{\select@language{spanish}}
\@writefile{lot}{\select@language{spanish}}
\@writefile{toc}{\contentsline {chapter}{\numberline {1}\IeC {\'I}ndice de estructura de datos}{1}{chapter.1}}
\@writefile{lof}{\addvspace {10\p@ }}
\@writefile{lot}{\addvspace {10\p@ }}
\@writefile{toc}{\contentsline {section}{\numberline {1.1}Estructura de datos}{1}{section.1.1}}
\@writefile{toc}{\contentsline {chapter}{\numberline {2}Indice de archivos}{3}{chapter.2}}
\@writefile{lof}{\addvspace {10\p@ }}
\@writefile{lot}{\addvspace {10\p@ }}
\@writefile{toc}{\contentsline {section}{\numberline {2.1}Lista de archivos}{3}{section.2.1}}
\@writefile{toc}{\contentsline {chapter}{\numberline {3}Documentaci\IeC {\'o}n de las estructuras de datos}{5}{chapter.3}}
\@writefile{lof}{\addvspace {10\p@ }}
\@writefile{lot}{\addvspace {10\p@ }}
\@writefile{toc}{\contentsline {section}{\numberline {3.1}Referencia de la Estructura \discretionary {-}{}{}\_\discretionary {-}{}{}ip\discretionary {-}{}{}\_\discretionary {-}{}{}digital}{5}{section.3.1}}
\newlabel{struct__ip__digital}{{3.1}{5}{Referencia de la Estructura \-\_\-ip\-\_\-digital}{section.3.1}{}}
\newlabel{struct__ip__digital_a740b59fa4e51e72ecf6ac3ee768c8c16}{{3.1}{5}{Campos de datos}{section*.2}{}}
\newlabel{struct__ip__digital_abb379e46b21fe1085385b9659b12f3a4}{{3.1}{5}{Campos de datos}{section*.2}{}}
\newlabel{struct__ip__digital_ad2da4e1192a4e459dc50abb0790454ae}{{3.1}{5}{Campos de datos}{section*.2}{}}
\newlabel{struct__ip__digital_a6b50836eb1082a79e08e63028a6be385}{{3.1}{5}{Campos de datos}{section*.2}{}}
\@writefile{toc}{\contentsline {subsection}{\numberline {3.1.1}Descripci\IeC {\'o}n detallada}{5}{subsection.3.1.1}}
\@writefile{toc}{\contentsline {section}{\numberline {3.2}Referencia de la Estructura A\discretionary {-}{}{}P\discretionary {-}{}{}P\discretionary {-}{}{}L\discretionary {-}{}{}I\discretionary {-}{}{}C\discretionary {-}{}{}A\discretionary {-}{}{}T\discretionary {-}{}{}I\discretionary {-}{}{}O\discretionary {-}{}{}N\discretionary {-}{}{}\_\discretionary {-}{}{}\discretionary {-}{}{}M\discretionary {-}{}{}E\discretionary {-}{}{}S\discretionary {-}{}{}S\discretionary {-}{}{}A\discretionary {-}{}{}G\discretionary {-}{}{}E}{5}{section.3.2}}
\newlabel{struct_a_p_p_l_i_c_a_t_i_o_n___m_e_s_s_a_g_e}{{3.2}{5}{Referencia de la Estructura A\-P\-P\-L\-I\-C\-A\-T\-I\-O\-N\-\_\-\-M\-E\-S\-S\-A\-G\-E}{section.3.2}{}}
\newlabel{struct_a_p_p_l_i_c_a_t_i_o_n___m_e_s_s_a_g_e_af6bd0ba14c4b5d5e5a22b5adb9256a53}{{3.2}{5}{Campos de datos}{section*.3}{}}
\newlabel{struct_a_p_p_l_i_c_a_t_i_o_n___m_e_s_s_a_g_e_a95e7421b9fa02e6b05185b7a01895da3}{{3.2}{5}{Campos de datos}{section*.3}{}}
\newlabel{struct_a_p_p_l_i_c_a_t_i_o_n___m_e_s_s_a_g_e_aad20077939fb7b9e145416f55028ea37}{{3.2}{5}{Campos de datos}{section*.3}{}}
\@writefile{toc}{\contentsline {subsection}{\numberline {3.2.1}Descripci\IeC {\'o}n detallada}{5}{subsection.3.2.1}}
\@writefile{toc}{\contentsline {chapter}{\numberline {4}Documentaci\IeC {\'o}n de archivos}{7}{chapter.4}}
\@writefile{lof}{\addvspace {10\p@ }}
\@writefile{lot}{\addvspace {10\p@ }}
\@writefile{toc}{\contentsline {section}{\numberline {4.1}Referencia del Archivo headers/config.h}{7}{section.4.1}}
\newlabel{config_8h}{{4.1}{7}{Referencia del Archivo headers/config.h}{section.4.1}{}}
\newlabel{config_8h_ab4e3a0f750ff9fb308658e5bb8450867}{{4.1}{7}{Variables}{section*.5}{}}
\newlabel{config_8h_a46c169451e8b1fac0acebbfd171e507c}{{4.1}{7}{Variables}{section*.5}{}}
\newlabel{config_8h_a025073a96368e63ad1e1065b2ac001e6}{{4.1}{7}{Variables}{section*.5}{}}
\newlabel{config_8h_acc8b38a515e5a4b86200501244410be8}{{4.1}{7}{Variables}{section*.5}{}}
\newlabel{config_8h_a4e20068437c9fdadb596d4af33ffe5fa}{{4.1}{7}{Variables}{section*.5}{}}
\newlabel{config_8h_a4c697ab0c6539d002c49d2c8480b4e71}{{4.1}{7}{Variables}{section*.5}{}}
\@writefile{toc}{\contentsline {subsection}{\numberline {4.1.1}Descripci\IeC {\'o}n detallada}{7}{subsection.4.1.1}}
\gdef \PWST@i{1}
\gdef \PWST@ii{1}
\gdef \PWST@iii{1}
\@writefile{toc}{\contentsline {subsection}{\numberline {4.1.2}Documentaci\IeC {\'o}n de las funciones}{8}{subsection.4.1.2}}
\@writefile{toc}{\contentsline {subsubsection}{\numberline {4.1.2.1}init\discretionary {-}{}{}\_\discretionary {-}{}{}switch}{8}{subsubsection.4.1.2.1}}
\newlabel{config_8h_af45194261c52dc895370e2c45aa02c0c}{{4.1.2.1}{8}{init\-\_\-switch}{subsubsection.4.1.2.1}{}}
\@writefile{toc}{\contentsline {subsubsection}{\numberline {4.1.2.2}port\discretionary {-}{}{}\_\discretionary {-}{}{}\discretionary {-}{}{}I\discretionary {-}{}{}S\discretionary {-}{}{}R}{8}{subsubsection.4.1.2.2}}
\newlabel{config_8h_a86da35fa7d9a511fbfc7139f298a3d51}{{4.1.2.2}{8}{port\-\_\-\-I\-S\-R}{subsubsection.4.1.2.2}{}}
\@writefile{toc}{\contentsline {subsubsection}{\numberline {4.1.2.3}timer\discretionary {-}{}{}\_\discretionary {-}{}{}isr}{8}{subsubsection.4.1.2.3}}
\newlabel{config_8h_ab63f4547503d1d604c478c7cb184fc37}{{4.1.2.3}{8}{timer\-\_\-isr}{subsubsection.4.1.2.3}{}}
\@writefile{toc}{\contentsline {subsection}{\numberline {4.1.3}Documentaci\IeC {\'o}n de las variables}{8}{subsection.4.1.3}}
\@writefile{toc}{\contentsline {subsubsection}{\numberline {4.1.3.1}zones\discretionary {-}{}{}\_\discretionary {-}{}{}quantity}{8}{subsubsection.4.1.3.1}}
\newlabel{config_8h_a1db6f8b93a9eb5baca0894b1799ef6a3}{{4.1.3.1}{8}{zones\-\_\-quantity}{subsubsection.4.1.3.1}{}}
\@writefile{toc}{\contentsline {section}{\numberline {4.2}Referencia del Archivo headers/main.h}{8}{section.4.2}}
\newlabel{main_8h}{{4.2}{8}{Referencia del Archivo headers/main.h}{section.4.2}{}}
\newlabel{main_8h_ae9654d56300e28ebd337bb5b8754b106}{{4.2}{9}{'defines'}{section*.7}{}}
\newlabel{main_8h_a9c2761f548d1a18d6574ccae441551cb}{{4.2}{9}{'defines'}{section*.7}{}}
\newlabel{main_8h_a84074ed82cd266230d9ad7f272462a02}{{4.2}{9}{Funciones}{section*.9}{}}
\newlabel{main_8h_a83064a3e525ff98fd6f899ae2f189400}{{4.2}{9}{Funciones}{section*.9}{}}
\newlabel{main_8h_abbcd9ad0c7e1d4919d94c78ea84fe366}{{4.2}{9}{Funciones}{section*.9}{}}
\newlabel{main_8h_a695c013cbffd6ded2e3ce05a4ac8632b}{{4.2}{9}{Funciones}{section*.9}{}}
\newlabel{main_8h_a44693bcf1c06232d772eda6639a6c8ae}{{4.2}{9}{Funciones}{section*.9}{}}
\gdef \PWST@iv{1}
\gdef \PWST@v{1}
\newlabel{main_8h_a14871705f45ccdc5bb9f4549efd8e119}{{4.2}{10}{Variables}{section*.10}{}}
\newlabel{main_8h_a543ce0d7b42f492162d73ad4880d58c4}{{4.2}{10}{Variables}{section*.10}{}}
\newlabel{main_8h_acf3e6b25218c40455fd7dbce5fd3ee82}{{4.2}{10}{Variables}{section*.10}{}}
\@writefile{toc}{\contentsline {subsection}{\numberline {4.2.1}Descripci\IeC {\'o}n detallada}{10}{subsection.4.2.1}}
\@writefile{toc}{\contentsline {subsection}{\numberline {4.2.2}Documentaci\IeC {\'o}n de las enumeraciones}{10}{subsection.4.2.2}}
\@writefile{toc}{\contentsline {subsubsection}{\numberline {4.2.2.1}A\discretionary {-}{}{}P\discretionary {-}{}{}P\discretionary {-}{}{}L\discretionary {-}{}{}I\discretionary {-}{}{}C\discretionary {-}{}{}A\discretionary {-}{}{}T\discretionary {-}{}{}I\discretionary {-}{}{}O\discretionary {-}{}{}N\discretionary {-}{}{}\_\discretionary {-}{}{}\discretionary {-}{}{}Q\discretionary {-}{}{}U\discretionary {-}{}{}E\discretionary {-}{}{}U\discretionary {-}{}{}E\discretionary {-}{}{}\_\discretionary {-}{}{}\discretionary {-}{}{}T}{10}{subsubsection.4.2.2.1}}
\newlabel{main_8h_aff1428d2393d77a998845908549342f7}{{4.2.2.1}{10}{A\-P\-P\-L\-I\-C\-A\-T\-I\-O\-N\-\_\-\-Q\-U\-E\-U\-E\-\_\-\-T}{subsubsection.4.2.2.1}{}}
\@writefile{toc}{\contentsline {subsection}{\numberline {4.2.3}Documentaci\IeC {\'o}n de las funciones}{10}{subsection.4.2.3}}
\@writefile{toc}{\contentsline {subsubsection}{\numberline {4.2.3.1}Config\discretionary {-}{}{}\_\discretionary {-}{}{}task}{10}{subsubsection.4.2.3.1}}
\newlabel{main_8h_ae874591c074e362489e39c70e1fe823a}{{4.2.3.1}{10}{Config\-\_\-task}{subsubsection.4.2.3.1}{}}
\@writefile{toc}{\contentsline {subsubsection}{\numberline {4.2.3.2}Init\discretionary {-}{}{}\_\discretionary {-}{}{}task}{10}{subsubsection.4.2.3.2}}
\newlabel{main_8h_afdfc4ccb7ecc3ebf23da235322cab3ce}{{4.2.3.2}{10}{Init\-\_\-task}{subsubsection.4.2.3.2}{}}
\gdef \PWST@vi{1}
\@writefile{toc}{\contentsline {subsubsection}{\numberline {4.2.3.3}Socket\discretionary {-}{}{}\_\discretionary {-}{}{}task}{11}{subsubsection.4.2.3.3}}
\newlabel{main_8h_a4629c56370dbd043d93efae284d3421c}{{4.2.3.3}{11}{Socket\-\_\-task}{subsubsection.4.2.3.3}{}}
\@writefile{toc}{\contentsline {subsection}{\numberline {4.2.4}Documentaci\IeC {\'o}n de las variables}{11}{subsection.4.2.4}}
\@writefile{toc}{\contentsline {subsubsection}{\numberline {4.2.4.1}ports}{11}{subsubsection.4.2.4.1}}
\newlabel{main_8h_a7cd3884b3c0b7e637cd5fb0797243419}{{4.2.4.1}{11}{ports}{subsubsection.4.2.4.1}{}}
\@writefile{toc}{\contentsline {subsubsection}{\numberline {4.2.4.2}ports\discretionary {-}{}{}\_\discretionary {-}{}{}mux}{11}{subsubsection.4.2.4.2}}
\newlabel{main_8h_a81692c30dee22beacdfe2faf74221ecd}{{4.2.4.2}{11}{ports\-\_\-mux}{subsubsection.4.2.4.2}{}}
\@writefile{toc}{\contentsline {section}{\numberline {4.3}Referencia del Archivo headers/menu.h}{11}{section.4.3}}
\newlabel{menu_8h}{{4.3}{11}{Referencia del Archivo headers/menu.h}{section.4.3}{}}
\newlabel{menu_8h_a26a804b31b9299f5c3aa9ca623a6f9e9}{{4.3}{11}{'defines'}{section*.11}{}}
\newlabel{menu_8h_a615e98d0afec2149cd5f45224acdeeb6}{{4.3}{11}{'defines'}{section*.11}{}}
\newlabel{menu_8h_a5b09ab92ce3c2eef34b06fad683e0a0c}{{4.3}{11}{'defines'}{section*.11}{}}
\newlabel{menu_8h_af26e88bec47637403dea8152a1d3be1f}{{4.3}{11}{'defines'}{section*.11}{}}
\newlabel{menu_8h_a2b2b29c1dde77da52700f5883fb3469c}{{4.3}{12}{Funciones}{section*.12}{}}
\newlabel{menu_8h_a2656520e40e092cd0ee9357520fda45f}{{4.3}{12}{Funciones}{section*.12}{}}
\newlabel{menu_8h_ae303e70a0a3aef926d6b85c95a86f0cf}{{4.3}{12}{Funciones}{section*.12}{}}
\newlabel{menu_8h_aaf5b8325dc65503ae7761b395a105a5a}{{4.3}{12}{Funciones}{section*.12}{}}
\newlabel{menu_8h_a876d08c1d21086e4fd228744da10d028}{{4.3}{12}{Variables}{section*.13}{}}
\newlabel{menu_8h_a14871705f45ccdc5bb9f4549efd8e119}{{4.3}{12}{Variables}{section*.13}{}}
\newlabel{menu_8h_a543ce0d7b42f492162d73ad4880d58c4}{{4.3}{12}{Variables}{section*.13}{}}
\newlabel{menu_8h_a025073a96368e63ad1e1065b2ac001e6}{{4.3}{12}{Variables}{section*.13}{}}
\newlabel{menu_8h_acc8b38a515e5a4b86200501244410be8}{{4.3}{12}{Variables}{section*.13}{}}
\newlabel{menu_8h_a11a7310ee9d77476871dbe977e71a7f4}{{4.3}{12}{Variables}{section*.13}{}}
\@writefile{toc}{\contentsline {subsection}{\numberline {4.3.1}Descripci\IeC {\'o}n detallada}{12}{subsection.4.3.1}}
\@writefile{toc}{\contentsline {subsection}{\numberline {4.3.2}Documentaci\IeC {\'o}n de las funciones}{12}{subsection.4.3.2}}
\@writefile{toc}{\contentsline {subsubsection}{\numberline {4.3.2.1}activate}{12}{subsubsection.4.3.2.1}}
\newlabel{menu_8h_a6bd00027b77202ab6dfae7ad48e00cd3}{{4.3.2.1}{12}{activate}{subsubsection.4.3.2.1}{}}
\gdef \PWST@vii{1}
\gdef \PWST@viii{1}
\gdef \PWST@ix{1}
\gdef \PWST@x{1}
\gdef \PWST@xi{1}
\@writefile{toc}{\contentsline {subsubsection}{\numberline {4.3.2.2}authentication}{13}{subsubsection.4.3.2.2}}
\newlabel{menu_8h_ab66e7ef4e77eadd08754e2946e69178b}{{4.3.2.2}{13}{authentication}{subsubsection.4.3.2.2}{}}
\@writefile{toc}{\contentsline {subsubsection}{\numberline {4.3.2.3}change\discretionary {-}{}{}\_\discretionary {-}{}{}frecuency}{13}{subsubsection.4.3.2.3}}
\newlabel{menu_8h_a058f568550dadd646c4cab26f09f2b38}{{4.3.2.3}{13}{change\-\_\-frecuency}{subsubsection.4.3.2.3}{}}
\@writefile{toc}{\contentsline {subsubsection}{\numberline {4.3.2.4}change\discretionary {-}{}{}\_\discretionary {-}{}{}password}{13}{subsubsection.4.3.2.4}}
\newlabel{menu_8h_a52116ce3226d653b7c30a9cce200a245}{{4.3.2.4}{13}{change\-\_\-password}{subsubsection.4.3.2.4}{}}
\@writefile{toc}{\contentsline {subsubsection}{\numberline {4.3.2.5}menu\discretionary {-}{}{}\_\discretionary {-}{}{}app}{13}{subsubsection.4.3.2.5}}
\newlabel{menu_8h_a474f41ef6637e15690fa30290dc8c73c}{{4.3.2.5}{13}{menu\-\_\-app}{subsubsection.4.3.2.5}{}}
\gdef \PWST@xii{1}
\gdef \PWST@xiii{1}
\gdef \PWST@xiv{1}
\gdef \PWST@xv{1}
\@writefile{toc}{\contentsline {subsubsection}{\numberline {4.3.2.6}option\discretionary {-}{}{}\_\discretionary {-}{}{}parser}{14}{subsubsection.4.3.2.6}}
\newlabel{menu_8h_a449925d9eea5202951b50fba60c6ced3}{{4.3.2.6}{14}{option\-\_\-parser}{subsubsection.4.3.2.6}{}}
\@writefile{toc}{\contentsline {subsubsection}{\numberline {4.3.2.7}sub\discretionary {-}{}{}\_\discretionary {-}{}{}menu\discretionary {-}{}{}\_\discretionary {-}{}{}config}{14}{subsubsection.4.3.2.7}}
\newlabel{menu_8h_a966802129da385326806237141e85e6d}{{4.3.2.7}{14}{sub\-\_\-menu\-\_\-config}{subsubsection.4.3.2.7}{}}
\@writefile{toc}{\contentsline {subsubsection}{\numberline {4.3.2.8}sub\discretionary {-}{}{}\_\discretionary {-}{}{}menu\discretionary {-}{}{}\_\discretionary {-}{}{}status}{14}{subsubsection.4.3.2.8}}
\newlabel{menu_8h_a1bce600d28512a77546dea34f1f84a9d}{{4.3.2.8}{14}{sub\-\_\-menu\-\_\-status}{subsubsection.4.3.2.8}{}}
\@writefile{toc}{\contentsline {subsection}{\numberline {4.3.3}Documentaci\IeC {\'o}n de las variables}{14}{subsection.4.3.3}}
\@writefile{toc}{\contentsline {subsubsection}{\numberline {4.3.3.1}zones\discretionary {-}{}{}\_\discretionary {-}{}{}quantity}{14}{subsubsection.4.3.3.1}}
\newlabel{menu_8h_a1db6f8b93a9eb5baca0894b1799ef6a3}{{4.3.3.1}{14}{zones\-\_\-quantity}{subsubsection.4.3.3.1}{}}
\@writefile{toc}{\contentsline {chapter}{\IeC {\'I}ndice}{15}{section*.14}}
